<svg width="1024" height="1024" version="1.1" viewBox="0 0 960 960" xmlns="http://www.w3.org/2000/svg" xmlns:xlink="http://www.w3.org/1999/xlink">
 <defs>
  <linearGradient id="b" x1="-291.57" x2="-675.57" y1="442.38" y2="410.38" gradientTransform="matrix(-1 0 0 1 -307.57 -110.01)" gradientUnits="userSpaceOnUse">
   <stop stop-color="#d00" offset="0"/>
   <stop stop-color="#f44" offset="1"/>
  </linearGradient>
  <linearGradient id="a" x1="-883.57" x2="-771.57" y1="138.38" y2="362.38" gradientTransform="matrix(-1 0 0 1 -307.57 -110.01)" gradientUnits="userSpaceOnUse">
   <stop stop-color="#f24" offset="0"/>
   <stop stop-color="#f66" offset="1"/>
  </linearGradient>
  <linearGradient id="d" x1="-435.57" x2="-723.57" y1="1194.3" y2="506.3" gradientTransform="matrix(-1 0 0 1 -307.54 -109.98)" gradientUnits="userSpaceOnUse">
   <stop stop-color="#803" offset="0"/>
   <stop stop-color="#d03" offset="1"/>
  </linearGradient>
  <linearGradient id="c" x1="-1459.6" x2="-819.57" y1="938.38" y2="458.38" gradientTransform="matrix(-1 0 0 1 -307.6 -110.01)" gradientUnits="userSpaceOnUse">
   <stop stop-color="#a00" offset="0"/>
   <stop stop-color="#de3b3b" offset="1"/>
  </linearGradient>
 </defs>
 <g transform="translate(0 -92.362)">
  <g>
   <rect x="7.6294e-6" y="60.362" width="1024" height="1024" color="#000000" fill="#fbb"/>
   <g>
    <path d="m368 60.362 96.5 192.5 383.5-192.5z" color="#000000" fill="url(#a)"/>
    <path d="m248 60.362h-248v424.75l368.5-184.25z" color="#000000" fill="url(#b)"/>
    <path d="m416.53 396.86-416.53 207.5v480h760z" color="#000000" fill="url(#d)"/>
   </g>
   <path d="m319.92 972.36c49.955-42.269 98.047-75.748 147.03-124.73 120.71-120.71-26.242-283.04-146.95-162.32-120.71-120.71-267.67 41.612-146.95 162.32 48.985 48.985 96.921 82.463 146.88 124.73z" color="#000000" fill="#fbb"/>
   <path d="m1024 92.362-511.53 256.5 367.53 735.5h144z" color="#000000" fill="url(#c)"/>
  </g>
 </g>
</svg>
