{
  "GEN": 1,
  "EXO": 2,
  "LEV": 3,
  "NUM": 4,
  "DEU": 5,
  "JOS": 6,
  "JDG": 7,
  "RUT": 8,
  "1SA": 9,
  "2SA": 10,
  "1KI": 11,
  "2KI": 12,
  "1CH": 13,
  "2CH": 14,
  "EZR": 15,
  "NEH": 16,
  "1ES": 17,
  "TOB": 18,
  "JDT": 19,
  "EST": 20,
  "JOB": 21,
  "PSA": 22,
  "PRO": 23,
  "ECC": 24,
  "SNG": 25,
  "WIS": 26,
  "SIR": 27,
  "ISA": 28,
  "JER": 29,
  "LAM": 30,
  "LJE": 31,
  "BAR": 32,
  "EZK": 33,
  "DAN": 34,
  "HOS": 35,
  "JOL": 36,
  "AMO": 37,
  "OBA": 38,
  "JON": 39,
  "MIC": 40,
  "NAM": 41,
  "HAB": 42,
  "ZEP": 43,
  "HAG": 44,
  "ZEC": 45,
  "MAL": 46,
  "1MA": 47,
  "2MA": 48,
  "3MA": 49,
  "2ES": 50,
  "MAT": 51,
  "MRK": 52,
  "LUK": 53,
  "JHN": 54,
  "ACT": 55,
  "JAS": 56,
  "1PE": 57,
  "2PE": 58,
  "1JN": 59,
  "2JN": 60,
  "3JN": 61,
  "JUD": 62,
  "ROM": 63,
  "1CO": 64,
  "2CO": 65,
  "GAL": 66,
  "EPH": 67,
  "PHP": 68,
  "COL": 69,
  "1TH": 70,
  "2TH": 71,
  "1TI": 72,
  "2TI": 73,
  "TIT": 74,
  "PHM": 75,
  "HEB": 76,
  "REV": 77
}