<?xml version="1.0" encoding="UTF-8"?>
<svg width="1024" height="1024" version="1.1" xmlns="http://www.w3.org/2000/svg">
 <defs>
  <linearGradient id="linearGradient4842-0-5" x1="-291.57" x2="-675.57" y1="442.38" y2="410.38" gradientTransform="matrix(-1 0 0 1 -307.57 -142.01)" gradientUnits="userSpaceOnUse">
   <stop stop-color="#d00" offset="0"/>
   <stop stop-color="#f44" offset="1"/>
  </linearGradient>
  <linearGradient id="linearGradient4844-8" x1="-883.57" x2="-771.57" y1="138.38" y2="362.38" gradientTransform="matrix(-1 0 0 1 -307.57 -142.01)" gradientUnits="userSpaceOnUse">
   <stop stop-color="#f24" offset="0"/>
   <stop stop-color="#f66" offset="1"/>
  </linearGradient>
  <linearGradient id="linearGradient4054" x1="-435.57" x2="-723.57" y1="1194.3" y2="506.3" gradientTransform="matrix(-1 0 0 1 -307.54 -141.98)" gradientUnits="userSpaceOnUse">
   <stop stop-color="#803" offset="0"/>
   <stop stop-color="#d03" offset="1"/>
  </linearGradient>
  <linearGradient id="linearGradient4089" x1="-1459.6" x2="-819.57" y1="938.38" y2="458.38" gradientTransform="matrix(-1 0 0 1 -307.6 -142.01)" gradientUnits="userSpaceOnUse">
   <stop stop-color="#a00" offset="0"/>
   <stop stop-color="#de3b3b" offset="1"/>
  </linearGradient>
 </defs>
 <metadata>
 </metadata>
 <g transform="translate(0 -28.362)">
  <path d="m357.01 60.362h309.98c102.8 0 154.19 0 209.53 17.493 60.416 21.99 108 69.572 129.99 129.99 17.493 55.33 17.493 106.73 17.493 209.53v277.98c0 102.8 0 154.19-17.493 209.53-21.99 60.416-69.572 108-129.99 129.98-55.339 17.502-106.73 17.502-209.53 17.502h-309.98c-102.8 0-154.2 0-209.53-17.502-60.416-21.982-108-69.564-129.99-129.98-17.493-55.339-17.493-106.73-17.493-209.53v-277.98c0-102.79 0-154.2 17.493-209.53 21.99-60.416 69.572-108 129.99-129.99 55.33-17.493 106.73-17.493 209.53-17.493" fill="#602"/>
  <path transform="translate(0 28.362)" d="m357 0c-102.8 0-154.2 0.00667-209.53 17.5-60.416 21.99-107.98 69.553-129.97 129.97-17.493 55.33-17.5 106.74-17.5 209.53v187.78l416.5-208.25 335.47 670.87c46.032-1.1023 79.599-4.3073 113.19-13.562l-352.66-705.34 431.28-215.66c28.023 24.054 49.792 55.109 62.719 90.625 15.304 48.414 17.228 93.822 17.469 173.28-0.0802-89.191-1.197-137.81-17.469-189.28-21.99-60.416-69.553-107.98-129.97-129.97-55.339-17.493-106.73-17.5-209.53-17.5h-310z" fill="#fbb"/>
  <g>
   <g>
    <path d="m376.25 44.362 88.25 176.5 345.16-172.59c-36.881-3.9051-80.295-3.9062-142.66-3.9062h-290.75z" color="#000000" fill="url(#linearGradient4844-8)"/>
    <path d="m256.78 45.425c-43.29 1.628-75.61 5.782-109.31 16.438-60.416 21.99-107.98 69.553-129.97 129.97-17.493 55.33-17.5 106.74-17.5 209.53v51.75l368.5-184.25-111.72-223.44z" color="#000000" fill="url(#linearGradient4842-0-5)"/>
    <path d="m416.53 364.86-416.5 208.25v106.25c0 102.8 0.0067 154.19 17.5 209.53 21.99 60.416 69.553 107.99 129.97 129.97 55.33 17.502 106.73 17.5 209.53 17.5h310c33.037 0 60.714-0.013 84.969-0.5938l-335.47-670.91z" color="#000000" fill="url(#linearGradient4054)"/>
   </g>
   <path d="m319.92 940.36c49.955-42.269 98.047-75.748 147.03-124.73 120.71-120.71-26.242-283.04-146.95-162.32-120.71-120.71-267.67 41.612-146.95 162.32 48.985 48.985 96.921 82.463 146.88 124.73z" color="#000000" fill="#fbb"/>
   <path transform="translate(-1088 60.362)" d="m512.35 1.1869e-4c282.77 0.19254 511.84 229.58 511.65 512.35-0.1926 282.77-229.58 511.84-512.35 511.65-282.77-0.1926-511.84-229.58-511.65-512.35 0.19245-282.63 229.37-511.65 512-511.65l1.5e-4 512z" color="#000000" fill="#fff" opacity=".46091"/>
   <path d="m943.75 101.21-431.28 215.66 352.69 705.38c3.7741-1.0409 7.5504-2.1753 11.344-3.375 60.416-21.982 107.98-69.553 129.97-129.97 17.493-55.339 17.5-106.73 17.5-209.53v-278c0-102.79-0.01-154.2-17.5-209.53-12.927-35.516-34.696-66.571-62.719-90.625z" color="#000000" fill="url(#linearGradient4089)"/>
  </g>
 </g>
</svg>
